<?xml version="1.0" encoding="utf-8"?>
<!-- Generator: Adobe Illustrator 19.1.0, SVG Export Plug-In . SVG Version: 6.00 Build 0)  -->
<svg version="1.1" id="Layer_1" xmlns="http://www.w3.org/2000/svg" xmlns:xlink="http://www.w3.org/1999/xlink" x="0px" y="0px"
	 width="100px" height="100px" viewBox="0 0 100 100" style="enable-background:new 0 0 100 100;" xml:space="preserve">
<style type="text/css">
	.st0{fill:#FFFFFF;}
</style>
<g>
	<path class="st0" d="M50,72.4L3,38.1c-2.3-1.7-2.8-4.9-1.1-7.2c1.7-2.3,4.9-2.8,7.2-1.1L50,59.6l40.9-29.8c2.3-1.7,5.5-1.2,7.2,1.1
		c1.7,2.3,1.2,5.5-1.1,7.2L50,72.4z"/>
</g>
</svg>
