<?xml version="1.0" encoding="utf-8"?>
<!-- Generator: Adobe Illustrator 19.1.0, SVG Export Plug-In . SVG Version: 6.00 Build 0)  -->
<svg version="1.1" id="Layer_2" xmlns="http://www.w3.org/2000/svg" xmlns:xlink="http://www.w3.org/1999/xlink" x="0px" y="0px"
	 viewBox="-45 98.9 54 54" style="enable-background:new -45 98.9 54 54;" xml:space="preserve">
<style type="text/css">
	.st0{fill:#FFFFFF;}
</style>
<g>
	<path class="st0" d="M-45,117.6v-15.7H9v15.7H-45z M7.1,115.8v-12h-50.3v12H7.1z M-37.4,115L-37.4,115c-2.8-0.3-5-2.6-5-5.5
		c0-3,2.5-5.5,5.5-5.5c3.1,0,5.5,2.4,5.5,5.5c0,2.8-2.2,5.2-5,5.5l0,0H-37.4z M-36.9,113.2c2,0,3.6-1.7,3.6-3.7s-1.6-3.7-3.6-3.7
		s-3.6,1.7-3.6,3.7S-38.9,113.2-36.9,113.2z M-29.8,111.7v-4.3h35v4.3H-29.8z M3.4,109.8v-0.6h-31.2v0.6H3.4z"/>
	<path class="st0" d="M-44.1,116.7v0.4H8.5v-14.7h-53v14.7h0.4L-44.1,116.7h0.4v-13.4H7.6v13h-51.7L-44.1,116.7h0.4H-44.1z
		 M-36.9,114.1v-0.4c-2.3,0-4.1-1.9-4.1-4.2c0-2.3,1.8-4.2,4.1-4.2c2.3,0,4.1,1.9,4.1,4.2s-1.8,4.2-4.1,4.2V114.1v0.4
		c2.7,0,5-2.3,5-5c0-2.8-2.2-5-5-5c-2.7,0-5,2.3-5,5c0,2.8,2.2,5,5,5V114.1z M4.3,110.7v-0.4h-32.6v-1.6H3.9v2H4.3v-0.4V110.7h0.4
		v-2.8h-34v3.3h34v-0.5H4.3z"/>
	<path class="st0" d="M-36.9,111.8c-1.3,0-2.3-1-2.3-2.3s1-2.3,2.3-2.3s2.3,1,2.3,2.3S-35.6,111.8-36.9,111.8z M-36.9,108.2
		c-0.7,0-1.3,0.6-1.3,1.3c0,0.7,0.6,1.3,1.3,1.3s1.3-0.6,1.3-1.3C-35.6,108.8-36.2,108.2-36.9,108.2z"/>
	<path class="st0" d="M-36.9,107.7c-1,0-1.8,0.8-1.8,1.8s0.8,1.8,1.8,1.8s1.8-0.8,1.8-1.8S-35.9,107.7-36.9,107.7"/>
	<path class="st0" d="M-36.9,112.4c-1.4,0-2.7-1.3-2.7-2.8c0-1.4,0.9-2.5,2.2-2.8l0,0h1v0.1c1.2,0.3,2.2,1.4,2.2,2.7
		C-34.2,111.1-35.4,112.4-36.9,112.4z M-36.9,108.6c-0.5,0-0.9,0.4-0.9,0.9s0.4,0.9,0.9,0.9s0.9-0.4,0.9-0.9S-36.4,108.6-36.9,108.6
		z"/>
	<path class="st0" d="M-36.9,107.7v-0.4c-1.2,0-2.2,1-2.2,2.3c0,1.2,1,2.3,2.2,2.3c1.2,0,2.2-1,2.2-2.3c0-1.2-1-2.3-2.2-2.3V107.7
		v0.4c0.8,0,1.4,0.6,1.4,1.4s-0.6,1.4-1.4,1.4c-0.8,0-1.4-0.6-1.4-1.4s0.6-1.4,1.4-1.4V107.7z"/>
	<path class="st0" d="M-45,150v-15.7H9v15.6h-52.6l-0.5,0.1H-45z M7.1,148.1v-12h-50.3v12H7.1z M-37.4,147.4L-37.4,147.4
		c-2.8-0.3-5-2.6-5-5.5c0-3,2.5-5.5,5.5-5.5c3.1,0,5.5,2.4,5.5,5.5c0,2.8-2.2,5.2-5,5.5l0,0H-37.4z M-36.9,145.6
		c2,0,3.6-1.7,3.6-3.7s-1.6-3.7-3.6-3.7s-3.6,1.7-3.6,3.7S-38.9,145.6-36.9,145.6z M-29.8,144v-4.3h35v4.3H-29.8z M3.4,142.2v-0.6
		h-31.2v0.6H3.4z"/>
	<path class="st0" d="M-44.1,149v0.4H8.5v-14.6h-53v14.7h0.4L-44.1,149h0.4v-13.4H7.6v13h-51.7L-44.1,149h0.4H-44.1z M-36.9,146.5
		v-0.4c-2.3,0-4.1-1.9-4.1-4.2s1.8-4.2,4.1-4.2c2.3,0,4.1,1.9,4.1,4.2c0,2.3-1.8,4.2-4.1,4.2V146.5v0.4c2.7,0,5-2.3,5-5
		c0-2.8-2.2-5-5-5c-2.7,0-5,2.3-5,5c0,2.8,2.2,5,5,5V146.5z M4.3,143.1v-0.4h-32.6v-1.6H3.9v2H4.3v-0.4V143.1h0.4v-2.9h-34v3.3h34
		v-0.4C4.7,143.1,4.3,143.1,4.3,143.1z"/>
	<path class="st0" d="M-36.9,144.2c-1.3,0-2.3-1-2.3-2.3s1-2.3,2.3-2.3s2.3,1,2.3,2.3S-35.6,144.2-36.9,144.2z M-36.9,140.6
		c-0.7,0-1.3,0.6-1.3,1.3c0,0.7,0.6,1.3,1.3,1.3s1.3-0.6,1.3-1.3C-35.6,141.2-36.2,140.6-36.9,140.6z"/>
	<path class="st0" d="M-36.9,140.1c-1,0-1.8,0.8-1.8,1.8s0.8,1.8,1.8,1.8s1.8-0.8,1.8-1.8S-35.9,140.1-36.9,140.1"/>
	<path class="st0" d="M-36.9,144.8c-1.4,0-2.7-1.3-2.7-2.8c0-1.4,0.9-2.5,2.2-2.8l0,0h1v0.1c1.2,0.3,2.2,1.4,2.2,2.7
		C-34.2,143.5-35.4,144.8-36.9,144.8z M-36.9,141c-0.5,0-0.9,0.4-0.9,0.9s0.4,0.9,0.9,0.9s0.9-0.4,0.9-0.9S-36.4,141-36.9,141z"/>
	<path class="st0" d="M-36.9,140.1v-0.4c-1.2,0-2.2,1-2.2,2.3c0,1.2,1,2.3,2.2,2.3c1.2,0,2.2-1,2.2-2.3c0-1.2-1-2.3-2.2-2.3V140.1
		v0.4c0.8,0,1.4,0.6,1.4,1.4s-0.6,1.4-1.4,1.4c-0.8,0-1.4-0.6-1.4-1.4s0.6-1.4,1.4-1.4V140.1z"/>
	<path class="st0" d="M-45,133.8v-15.7H9v15.7C9,133.8-45,133.8-45,133.8z M7.1,131.9v-12h-50.3v12H7.1z M-37.4,131.2L-37.4,131.2
		c-2.8-0.3-5-2.6-5-5.5c0-3,2.5-5.5,5.5-5.5c3.1,0,5.5,2.4,5.5,5.5c0,2.8-2.2,5.2-5,5.5l0,0H-37.4z M-36.9,129.4
		c2,0,3.6-1.7,3.6-3.7s-1.6-3.7-3.6-3.7s-3.6,1.7-3.6,3.7S-38.9,129.4-36.9,129.4z M-29.8,127.9v-4.4h35v4.4H-29.8z M3.4,126v-0.6
		h-31.2v0.6H3.4z"/>
	<path class="st0" d="M-44.1,132.9v0.4H8.5v-14.7h-53v14.7h0.4L-44.1,132.9h0.4v-13.5H7.6v13h-51.7L-44.1,132.9h0.4H-44.1z
		 M-36.9,130.3v-0.4c-2.3,0-4.1-1.9-4.1-4.2s1.8-4.2,4.1-4.2c2.3,0,4.1,1.9,4.1,4.2c0,2.3-1.8,4.2-4.1,4.2V130.3v0.4
		c2.7,0,5-2.3,5-5c0-2.8-2.2-5-5-5c-2.7,0-5,2.3-5,5c0,2.8,2.2,5,5,5V130.3z M4.3,126.9v-0.4h-32.6v-1.6H3.9v2H4.3v-0.4V126.9h0.4
		V124h-34v3.4h34V127L4.3,126.9L4.3,126.9z"/>
	<path class="st0" d="M-36.9,128c-1.3,0-2.3-1-2.3-2.3s1-2.3,2.3-2.3s2.3,1,2.3,2.3S-35.6,128-36.9,128z M-36.9,124.4
		c-0.7,0-1.3,0.6-1.3,1.3c0,0.7,0.6,1.3,1.3,1.3s1.3-0.6,1.3-1.3C-35.6,125-36.2,124.4-36.9,124.4z"/>
	<path class="st0" d="M-36.9,123.9c-1,0-1.8,0.8-1.8,1.8s0.8,1.8,1.8,1.8s1.8-0.8,1.8-1.8S-35.9,123.9-36.9,123.9"/>
	<path class="st0" d="M-36.9,128.5c-1.4,0-2.7-1.3-2.7-2.8c0-1.4,0.9-2.5,2.2-2.8l0,0h1v0.1c1.2,0.3,2.2,1.4,2.2,2.7
		C-34.2,127.2-35.4,128.5-36.9,128.5z M-36.9,124.8c-0.5,0-0.9,0.4-0.9,0.9s0.4,0.9,0.9,0.9s0.9-0.4,0.9-0.9S-36.4,124.8-36.9,124.8
		z"/>
	<path class="st0" d="M-36.9,123.9v-0.5c-1.2,0-2.2,1-2.2,2.3c0,1.2,1,2.3,2.2,2.3c1.2,0,2.2-1,2.2-2.3c0-1.2-1-2.3-2.2-2.3V123.9
		v0.4c0.8,0,1.4,0.6,1.4,1.4s-0.6,1.4-1.4,1.4c-0.8,0-1.4-0.6-1.4-1.4s0.6-1.4,1.4-1.4V123.9z"/>
</g>
</svg>
