<?xml version="1.0" encoding="utf-8"?>
<!-- Generator: Adobe Illustrator 19.1.0, SVG Export Plug-In . SVG Version: 6.00 Build 0)  -->
<svg version="1.1" id="Layer_1" xmlns="http://www.w3.org/2000/svg" xmlns:xlink="http://www.w3.org/1999/xlink" x="0px" y="0px"
	 viewBox="0 0 100 100" style="enable-background:new 0 0 100 100;" xml:space="preserve">
<style type="text/css">
	.st0{fill:#FFFFFF;}
	.st1{fill:#85CCDD;}
</style>
<g>
	<g>
		<path class="st0" d="M15.8,34.6c0,19,15.4,34.3,34.3,34.3s34.3-15.4,34.3-34.3S69.1,0.3,50.2,0.3S15.8,15.7,15.8,34.6z M74.4,34.6
			c0,13.4-10.9,24.2-24.2,24.2c-13.4,0-24.2-10.9-24.2-24.2s10.9-24.2,24.2-24.2C63.6,10.4,74.4,21.2,74.4,34.6z"/>
		<path class="st1" d="M51,10.4c13,0.4,23.4,11.1,23.4,24.2c0,13.4-10.9,24.2-24.2,24.2c-8.1,0-15.2-4-19.6-10
			c-2.8,1.8-5.8,3.5-8.8,5C27.9,63,38.3,69,50.2,69c19,0,34.3-15.4,34.3-34.3C84.5,16,69.6,0.8,51,0.3V10.4z"/>
	</g>
	<g>
		<g>
			<path class="st0" d="M34.8,39.5c-2.9,0-5.1-2.2-5.1-5.1c0-2.2,1.4-4.2,3.5-4.9c0.2-3.4,3.2-6.1,6.9-6.1c2.4,0,4.6,1.2,5.9,3
				c1.3-0.5,2.9-0.4,4.1,0.4L49.2,28c-0.9-0.6-2.2-0.6-3.2,0l-0.7,0.4L45,27.7c-0.9-1.7-2.8-2.9-5-2.9c-3,0-5.5,2.2-5.5,4.9
				c0,0.1,0,0.1,0,0.2l0,0.6L34,30.7c-1.7,0.4-2.9,1.9-2.9,3.7c0,2.1,1.6,3.7,3.7,3.7V39.5z"/>
		</g>
		<g>
			<path class="st0" d="M63.6,45.9h-22c-4.1,0-7.4-2.8-7.4-6.4c0-2.9,2.2-5.4,5.2-6.3c0-0.1,0-0.3,0-0.4c0-2.6,2.5-4.7,5.5-4.7
				c0.9,0,1.8,0.2,2.6,0.6c1.7-2.6,4.9-4.2,8.4-4.2c5.3,0,9.6,3.7,9.7,8.3c2.9,0.9,5,3.5,5,6.6C70.7,42.9,67.6,45.9,63.6,45.9z
				 M44.9,29.4c-2.3,0-4.1,1.5-4.1,3.3c0,0.3,0,0.5,0.1,0.8l0.2,0.8l-0.8,0.1c-2.7,0.5-4.7,2.6-4.7,5.1c0,2.8,2.6,5,6,5h22
				c3.2,0,5.7-2.3,5.7-5.3c0-2.5-1.9-4.8-4.5-5.3l-0.6-0.1l0-0.6c0-0.1,0-0.2,0-0.3c0-3.9-3.7-7-8.3-7c-3.2,0-6.2,1.6-7.5,4.1
				l-0.4,0.6l-0.6-0.4C46.7,29.6,45.8,29.4,44.9,29.4z"/>
		</g>
	</g>
</g>
<g>
	<path class="st1" d="M24.6,90.3c0-5.3,2.8-9.4,8-9.4c2.3,0,4,0.8,5.3,2l-1.5,2.4c-1-1-2-1.6-3.8-1.6c-3,0-4.8,2.8-4.8,6
		c0,0.2,0,0.4,0,0.5c0.8-1.2,2.7-2.5,4.9-2.5c3.3,0,6.1,2,6.1,5.9c0,3.4-2.7,6.1-6.7,6.1C26.8,99.7,24.6,95.3,24.6,90.3z M35.7,93.7
		c0-2.2-1.8-3.3-3.8-3.3c-1.6,0-3.1,0.8-4,2.2c0.2,2,1.3,4.3,4.1,4.3C34.4,96.8,35.7,95.1,35.7,93.7z"/>
	<path class="st1" d="M42,97.6l1.5-2.4c1,1,2,1.6,3.8,1.6c3.3,0,4.8-3,4.8-6c0-0.2,0-0.4,0-0.5c-0.8,1.2-2.8,2.6-4.9,2.6
		c-3.3,0-6.1-2-6.1-5.9c0-3.4,2.7-6.1,6.7-6.1c5.4,0,7.5,4.4,7.5,9.4c0,5.3-2.8,9.4-8,9.4C45,99.7,43.2,98.9,42,97.6z M52,87.9
		c-0.2-2-1.3-4.3-4.1-4.3c-2.4,0-3.6,1.7-3.6,3.2c0,2.2,1.8,3.3,3.7,3.3C49.5,90.1,51.1,89.3,52,87.9z"/>
	<path class="st1" d="M57.2,85.4c0-2.6,1.8-4.6,4.5-4.6c2.7,0,4.6,2,4.6,4.6c0,2.5-1.8,4.5-4.6,4.5C59,89.9,57.2,87.9,57.2,85.4z
		 M64.1,85.4c0-1.6-1-2.7-2.4-2.7c-1.4,0-2.4,1.1-2.4,2.7c0,1.6,1,2.7,2.4,2.7C63.1,88.1,64.1,87,64.1,85.4z M59.9,99.4l11.7-18.3
		h1.8L61.7,99.4H59.9z M67,95.2c0-2.6,1.8-4.6,4.5-4.6c2.7,0,4.5,2,4.5,4.6c0,2.5-1.8,4.5-4.5,4.5C68.8,99.7,67,97.7,67,95.2z
		 M74,95.2c0-1.6-1-2.7-2.4-2.7s-2.4,1.1-2.4,2.7c0,1.6,1,2.7,2.4,2.7S74,96.8,74,95.2z"/>
</g>
</svg>
