<?xml version="1.0" encoding="utf-8"?>
<!-- Generator: Adobe Illustrator 19.1.0, SVG Export Plug-In . SVG Version: 6.00 Build 0)  -->
<svg version="1.1" id="Layer_1" xmlns="http://www.w3.org/2000/svg" xmlns:xlink="http://www.w3.org/1999/xlink" x="0px" y="0px"
	 viewBox="0 0 85.7 13" style="enable-background:new 0 0 85.7 13;" xml:space="preserve">
<style type="text/css">
	.st0{clip-path:url(#SVGID_2_);fill:#717073;}
</style>
<g>
	<defs>
		<rect id="SVGID_1_" y="0" width="85.7" height="13"/>
	</defs>
	<clipPath id="SVGID_2_">
		<use xlink:href="#SVGID_1_"  style="overflow:visible;"/>
	</clipPath>
	<path class="st0" d="M36.8,12.1L33.1,1.6c0-0.1-0.1-0.3-0.1-0.5c0-0.5,0.4-0.9,0.9-0.9c0.5,0,0.8,0.3,0.9,0.8l3.1,9L41,1
		c0.1-0.4,0.4-0.7,0.9-0.7H42c0.5,0,0.8,0.3,1,0.7l3.1,9l3.2-9c0.1-0.4,0.4-0.7,0.9-0.7c0.5,0,0.9,0.4,0.9,0.9
		c0,0.2-0.1,0.4-0.1,0.5l-3.8,10.5c-0.2,0.5-0.6,0.8-1,0.8h-0.1c-0.5,0-0.8-0.3-1-0.8L42,3.2l-3.1,8.9c-0.2,0.5-0.5,0.8-1,0.8h0
		C37.4,12.9,37,12.6,36.8,12.1"/>
	<path class="st0" d="M64.1,1.2c0-0.5,0.4-0.9,0.9-0.9c0.5,0,0.9,0.4,0.9,0.9v2.1c0.9-2.1,2.9-3,4.3-3c0.6,0,0.9,0.4,0.9,0.9
		c0,0.5-0.3,0.9-0.8,0.9C68,2.4,66,4.2,66,7.8V12c0,0.5-0.4,0.9-0.9,0.9c-0.5,0-0.9-0.4-0.9-0.9V1.2"/>
	<path class="st0" d="M77.1,13c-3.3,0-6.1-2.6-6.1-6.4V6.6c0-3.5,2.5-6.4,5.8-6.4c3.6,0,5.6,3,5.6,6.2c0,0.5-0.4,0.9-0.8,0.9h-8.8
		c0.3,2.7,2.1,4.1,4.3,4.1c1.5,0,2.6-0.6,3.5-1.4c0.1-0.1,0.3-0.2,0.5-0.2c0.4,0,0.8,0.4,0.8,0.8c0,0.2-0.1,0.4-0.3,0.6
		C80.5,12.3,79.1,13,77.1,13 M80.7,5.9c-0.2-2.2-1.5-4.2-3.9-4.2c-2.1,0-3.7,1.8-3.9,4.2H80.7z"/>
	<path class="st0" d="M51.1,9.2L51.1,9.2c0-2.6,2.1-4,5.3-4c1.6,0,2.7,0.2,3.8,0.5V5.3c0-2.2-1.4-3.4-3.7-3.4c-1.2,0-2,0.2-2.9,0.6
		c-0.1,0-0.2,0.1-0.3,0.1c-0.4,0-0.8-0.4-0.8-0.8c0-0.4,0.2-0.6,0.5-0.8c1.2-0.5,2.1-0.7,3.7-0.7c1.7,0,3.1,0.5,4,1.4
		c0.8,0.8,1.3,2,1.3,3.6V12c0,0.5-0.4,0.9-0.9,0.9c-0.5,0-0.9-0.4-0.9-0.9v-1.2C59.3,12,57.9,13,55.7,13C53.4,13,51.1,11.7,51.1,9.2
		 M60.2,8.2V7c-0.9-0.3-2.1-0.5-3.6-0.5c-2.3,0-3.6,1-3.6,2.6v0c0,1.6,1.4,2.5,3.1,2.5C58.3,11.6,60.2,10.2,60.2,8.2"/>
	<path class="st0" d="M3.4,1C3,0.2,2-0.2,1,0.2C0.1,0.6-0.2,1.6,0.2,2.5L4.1,11c0.6,1.3,1.3,2,2.5,2c1.3,0,1.9-0.8,2.5-2
		c0,0,3.4-7.4,3.5-7.5c0-0.1,0.1-0.3,0.5-0.3c0.3,0,0.5,0.2,0.5,0.6V11c0,1.1,0.6,2,1.8,2c1.2,0,1.8-0.9,1.8-2v-6
		c0-1.1,0.8-1.9,1.9-1.9c1.1,0,1.9,0.8,1.9,1.9v6c0,1.1,0.6,2,1.8,2s1.8-0.9,1.8-2v-6c0-1.1,0.8-1.9,1.9-1.9c1.1,0,1.9,0.8,1.9,1.9
		v6c0,1.1,0.6,2,1.8,2s1.8-0.9,1.8-2V4.2c0-2.5-2-4.2-4.4-4.2c-2.4,0-3.9,1.7-3.9,1.7C23,0.6,21.9,0,20.1,0c-2,0-3.7,1.7-3.7,1.7
		c-0.8-1-2.2-1.7-3.3-1.7c-1.7,0-3.1,0.8-4,2.7L6.6,8.6L3.4,1"/>
	<path class="st0" d="M82.6,1.8L82.6,1.8c0-0.8,0.7-1.5,1.5-1.5c0.9,0,1.5,0.7,1.5,1.5v0c0,0.8-0.7,1.5-1.5,1.5
		C83.3,3.3,82.6,2.6,82.6,1.8 M85.4,1.8L85.4,1.8c0-0.7-0.5-1.3-1.2-1.3c-0.7,0-1.2,0.6-1.2,1.3v0c0,0.7,0.5,1.2,1.2,1.2
		C84.8,3,85.4,2.4,85.4,1.8"/>
	<path class="st0" d="M83.6,1.2c0-0.1,0.1-0.2,0.2-0.2h0.5c0.2,0,0.3,0.1,0.4,0.2c0.1,0.1,0.1,0.2,0.1,0.3v0c0,0.2-0.1,0.4-0.3,0.5
		l0.2,0.3c0,0,0.1,0.1,0.1,0.1c0,0.1-0.1,0.2-0.2,0.2c-0.1,0-0.1,0-0.2-0.1L84.1,2h-0.3v0.3c0,0.1-0.1,0.2-0.2,0.2s-0.2-0.1-0.2-0.2
		V1.2z M84.2,1.7c0.2,0,0.2-0.1,0.2-0.2v0c0-0.1-0.1-0.2-0.3-0.2h-0.3v0.4H84.2z"/>
</g>
</svg>
